{
    "elements": {},
    "attributes": {
        "th:text": {
            "context": "label"
        },
        "th:if": {
            "context": "span"
        },
        "integrity": {
            "context": "link"
        },
        "th:for": {
            "context": "label"
        },
        "th:action": {
            "context": "form"
        },
        "th:field": {
            "context": "input"
        },
        "th:class": {
            "context": "div"
        }
    }
}